Manipulação de dados em R (tidyverse)
…
Vancine et al. (2018)

Importar dados

Formato .csv

# ler uma planilha eletronica (.csv)
si <- readr::read_csv("ATLANTIC_AMPHIBIANS_sites.csv")
si

# A tibble: 1,163 × 25
   id      reference_number species_number record sampled_habitat active_methods
   <chr>              <dbl>          <dbl> <chr>  <chr>           <chr>         
 1 amp1001             1001             19 ab     fo,ll           as            
 2 amp1002             1002             16 co     fo,la,ll        as            
 3 amp1003             1002             14 co     fo,la,ll        as            
 4 amp1004             1002             13 co     fo,la,ll        as            
 5 amp1005             1003             30 co     fo,ll,br        as            
 6 amp1006             1004             42 co     tp,pp,la,ll,is  <NA>          
 7 amp1007             1005             23 co     sp              as            
 8 amp1008             1005             19 co     sp,la,sw        as,sb,tr      
 9 amp1009             1005             13 ab     fo              <NA>          
10 amp1010             1006              1 ab     fo              <NA>          
# ℹ 1,153 more rows
# ℹ 19 more variables: passive_methods <chr>, complementary_methods <chr>,
#   period <chr>, month_start <dbl>, year_start <dbl>, month_finish <dbl>,
#   year_finish <dbl>, effort_months <dbl>, country <chr>, state <chr>,
#   state_abbreviation <chr>, municipality <chr>, site <chr>, latitude <dbl>,
#   longitude <dbl>, coordinate_precision <chr>, altitude <dbl>,
#   temperature <dbl>, precipitation <dbl>

Importar dados

Formato .txt

# importar txt
si <- readr::read_tsv("ATLANTIC_AMPHIBIANS_sites.txt")
si

# A tibble: 1,163 × 25
   id      reference_number species_number record sampled_habitat active_methods
   <chr>              <dbl>          <dbl> <chr>  <chr>           <chr>         
 1 amp1001             1001             19 ab     fo,ll           as            
 2 amp1002             1002             16 co     fo,la,ll        as            
 3 amp1003             1002             14 co     fo,la,ll        as            
 4 amp1004             1002             13 co     fo,la,ll        as            
 5 amp1005             1003             30 co     fo,ll,br        as            
 6 amp1006             1004             42 co     tp,pp,la,ll,is  <NA>          
 7 amp1007             1005             23 co     sp              as            
 8 amp1008             1005             19 co     sp,la,sw        as,sb,tr      
 9 amp1009             1005             13 ab     fo              <NA>          
10 amp1010             1006              1 ab     fo              <NA>          
# ℹ 1,153 more rows
# ℹ 19 more variables: passive_methods <chr>, complementary_methods <chr>,
#   period <chr>, month_start <dbl>, year_start <dbl>, month_finish <dbl>,
#   year_finish <dbl>, effort_months <dbl>, country <chr>, state <chr>,
#   state_abbreviation <chr>, municipality <chr>, site <chr>, latitude <dbl>,
#   longitude <dbl>, coordinate_precision <chr>, altitude <dbl>,
#   temperature <dbl>, precipitation <dbl>
…
# exportar .xlsx
install.packages("writexl")
library("writexl")

Importar dados

Formato .xlsx

# importar xlsx
si <- readxl::read_excel("ATLANTIC_AMPHIBIANS_sites.xlsx", sheet = 1)
si

# A tibble: 1,163 × 25
   id      reference_number species_number record sampled_habitat active_methods
   <chr>              <dbl>          <dbl> <chr>  <chr>           <chr>         
 1 amp1001             1001             19 ab     fo,ll           as            
 2 amp1002             1002             16 co     fo,la,ll        as            
 3 amp1003             1002             14 co     fo,la,ll        as            
 4 amp1004             1002             13 co     fo,la,ll        as            
 5 amp1005             1003             30 co     fo,ll,br        as            
 6 amp1006             1004             42 co     tp,pp,la,ll,is  NA            
 7 amp1007             1005             23 co     sp              as            
 8 amp1008             1005             19 co     sp,la,sw        as,sb,tr      
 9 amp1009             1005             13 ab     fo              NA            
10 amp1010             1006              1 ab     fo              NA            
# ℹ 1,153 more rows
# ℹ 19 more variables: passive_methods <chr>, complementary_methods <chr>,
#   period <chr>, month_start <chr>, year_start <chr>, month_finish <chr>,
#   year_finish <chr>, effort_months <chr>, country <chr>, state <chr>,
#   state_abbreviation <chr>, municipality <chr>, site <chr>, latitude <dbl>,
#   longitude <dbl>, coordinate_precision <chr>, altitude <dbl>,
#   temperature <chr>, precipitation <chr>
…
